<svg xmlns="http://www.w3.org/2000/svg" viewBox="0 0 32 22">
    <title>chat</title>
    <path
    class="icon-dark"
    d="M26,11.71a4.36,4.36,0,0,1-.79,2.51,6.62,6.62,0,0,1-2.18,2c.08.18.15.34.23.49a2.87,2.87,0,0,0,.28.43l.25.32a1.69,1.69,0,0,0,.2.23l.46.51.05.07,0,.08,0,.07v.14a.41.41,0,0,1-.14.25.39.39,0,0,1-.25.08l-1-.18a9.46,9.46,0,0,1-3.1-1.43,11.19,11.19,0,0,1-2,.18A9.3,9.3,0,0,1,12.88,16l.56,0h.42a12,12,0,0,0,3.45-.5,10.07,10.07,0,0,0,2.94-1.44,7.61,7.61,0,0,0,2.15-2.37,5.83,5.83,0,0,0,.49-4.53,6.59,6.59,0,0,1,2.27,2A4.35,4.35,0,0,1,26,11.71ZM20.67,6a4.47,4.47,0,0,1,0,5.73,7.11,7.11,0,0,1-2.87,2.09,10,10,0,0,1-3.94.76,11.19,11.19,0,0,1-2-.18,9.26,9.26,0,0,1-3.1,1.43,8.31,8.31,0,0,1-1,.18h0a.35.35,0,0,1-.23-.09.34.34,0,0,1-.11-.17l0-.06a.22.22,0,0,1,0-.08v-.07l0-.07,0-.08,0-.07.18-.2.19-.2.24-.27.3-.39a2.44,2.44,0,0,0,.28-.43c.08-.15.15-.31.23-.49a6.52,6.52,0,0,1-2.18-2A4.38,4.38,0,0,1,6,8.86,4.5,4.5,0,0,1,7.05,6,7.06,7.06,0,0,1,9.91,3.91a10.08,10.08,0,0,1,3.95-.77,10,10,0,0,1,3.94.77A7.09,7.09,0,0,1,20.67,6Z"/>
</svg>