<svg xmlns="http://www.w3.org/2000/svg" viewBox="0 0 32 22">
    <title>stream</title>
    <rect class="icon-dark" x="1.5" y="1" width="29" height="20"/>
    <polygon class="icon-white" points="20.5 11 13.5 14.5 13.5 7.5 20.5 11"/>
</svg>